/home/rails-dev/.rvm/rubies/ruby-2.1.1/bin/ruby extconf.rb
checking for libkern/OSAtomic.h... no
creating Makefile

make "DESTDIR=" clean

make "DESTDIR="
compiling atomic_reference.c
linking shared-object atomic_reference.so

make "DESTDIR=" install
/usr/bin/install -c -m 0755 atomic_reference.so ./.gem.20140312-2243-njyed0
installing default atomic_reference libraries
